<?xml version="1.0" encoding="utf-8"?>
<!-- Generator: Adobe Illustrator 22.1.0, SVG Export Plug-In . SVG Version: 6.00 Build 0)  -->
<svg version="1.1" id="Layer_1" xmlns="http://www.w3.org/2000/svg" xmlns:xlink="http://www.w3.org/1999/xlink" x="0px" y="0px"
	 viewBox="0 0 195.9 49.3" style="enable-background:new 0 0 195.9 49.3;" xml:space="preserve">
<g>
	<path d="M0.3,27.2V0h15.9v4.3h-11v7.1h9.5v4.1H5.2v11.7H0.3z"/>
	<path d="M25.4,0v17.6c0,2,0.3,3.5,1,4.4c0.7,0.9,1.9,1.4,3.6,1.4c1.8,0,3-0.5,3.6-1.4c0.7-0.9,1-2.4,1-4.4V0h4.9v16.9
		c0,1.9-0.2,3.5-0.5,4.8c-0.3,1.3-0.9,2.5-1.6,3.3c-0.8,0.9-1.7,1.5-2.9,1.9s-2.7,0.6-4.5,0.6c-1.8,0-3.2-0.2-4.5-0.6
		s-2.2-1.1-2.9-1.9c-0.8-0.9-1.3-2-1.6-3.3c-0.3-1.3-0.5-3-0.5-4.8V0H25.4z"/>
	<path d="M45,27.2V0h4.9v22.9h9.5v4.3H45z"/>
	<path d="M63.4,27.2V0h4.9v22.9h9.5v4.3H63.4z"/>
	<path d="M108.4,11.7l0.3-4.6h-0.5l-1.8,4.4L101.5,22l-4.9-10.5l-1.8-4.4h-0.5l0.3,4.6v15.5H90V0h5.3l4,8.8l2,5.6h0.4l2-5.6l4-8.8
		h5.3v27.2h-4.6V11.7z"/>
	<path d="M118.7,27.2V0H135v4.3h-11.4v7.1h10v4.1h-10v7.4H135v4.3H118.7z"/>
	<path d="M149.6,4.3v22.9h-4.9V4.3h-6.8V0h18.5v4.3H149.6z"/>
	<path d="M173.1,27.2l-1.9-7.1h-8.8l-1.9,7.1h-4.7L163.8,0h6.1l7.9,27.2H173.1z M167.9,8.7l-0.9-4.3h-0.5l-0.9,4.3l-2.1,7.4h6.4
		L167.9,8.7z"/>
	<path d="M181.5,27.2V0h4.9v22.9h9.5v4.3H181.5z"/>
</g>
<g>
	<path d="M3.2,49.1L0,34.8h1.2l2,9.3L4,47.9h0.2l0.7-3.8l2.1-9.3h1.6l2.1,9.3l0.7,3.8h0.1l0.7-3.8l2-9.3h1.2l-3.3,14.3h-1.5
		l-2.1-9.3l-0.7-4H7.6l-0.7,4l-2.2,9.3H3.2z"/>
	<path d="M35.6,49.3c-0.8,0-1.6-0.1-2.2-0.4c-0.7-0.3-1.2-0.7-1.7-1.3c-0.5-0.6-0.8-1.3-1-2.3c-0.2-0.9-0.4-2.1-0.4-3.4
		c0-1.3,0.1-2.5,0.4-3.4s0.6-1.7,1-2.3c0.5-0.6,1-1,1.7-1.3c0.7-0.3,1.4-0.4,2.2-0.4c0.8,0,1.6,0.1,2.2,0.4c0.7,0.3,1.2,0.7,1.7,1.3
		c0.5,0.6,0.8,1.4,1,2.3s0.4,2.1,0.4,3.4c0,1.3-0.1,2.5-0.4,3.4c-0.2,0.9-0.6,1.7-1,2.3c-0.5,0.6-1,1-1.7,1.3
		C37.2,49.2,36.5,49.3,35.6,49.3z M35.6,48.3c1.3,0,2.3-0.4,3-1.3c0.7-0.9,1-2.1,1-3.8v-2.6c0-1.7-0.3-2.9-1-3.8s-1.7-1.3-3-1.3
		c-1.3,0-2.3,0.4-3,1.3c-0.7,0.9-1,2.1-1,3.8v2.6c0,1.7,0.3,2.9,1,3.8C33.4,47.8,34.4,48.3,35.6,48.3z"/>
	<path d="M58.6,49.1h-1.2V34.8h5.2c2.2,0,3.4,1.3,3.4,4c0,2.4-0.9,3.8-2.8,4l3.2,6.3H65l-3-6.3h-3.4V49.1z M62.6,41.8
		c1.4,0,2.1-0.8,2.1-2.3v-1.3c0-1.5-0.7-2.3-2.1-2.3h-4v5.9H62.6z"/>
	<path d="M85.9,41.7l-2.1,2.6v4.8h-1.2V34.8h1.2v5l-0.1,3.1h0.2l2.3-3.1l3.9-5h1.4l-4.8,6.1l5,8.2h-1.4L85.9,41.7z"/>
	<path d="M110.9,49.3c-1.1,0-1.9-0.2-2.7-0.6c-0.7-0.4-1.3-1-1.8-1.8l0.9-0.7c0.4,0.7,0.9,1.2,1.5,1.5c0.6,0.4,1.3,0.5,2.1,0.5
		c1,0,1.8-0.2,2.3-0.7c0.5-0.5,0.8-1.2,0.8-2.3c0-0.8-0.2-1.4-0.6-1.9c-0.4-0.4-1.1-0.8-2-1l-1.1-0.3c-0.6-0.1-1.1-0.3-1.6-0.5
		c-0.4-0.2-0.8-0.5-1.1-0.8c-0.3-0.3-0.5-0.7-0.6-1.1c-0.1-0.4-0.2-0.9-0.2-1.4c0-1.3,0.4-2.2,1.1-2.8s1.8-0.9,3.1-0.9
		c1,0,1.8,0.2,2.4,0.5c0.6,0.4,1.2,0.9,1.6,1.6l-0.9,0.6c-0.4-0.6-0.8-1-1.3-1.3s-1.1-0.4-1.9-0.4c-1,0-1.7,0.2-2.2,0.6
		c-0.5,0.4-0.8,1.1-0.8,2.1c0,0.8,0.2,1.4,0.6,1.8s1.1,0.7,2,0.9l1.1,0.3c0.6,0.2,1.2,0.3,1.6,0.6c0.4,0.2,0.8,0.5,1.1,0.8
		c0.3,0.3,0.5,0.7,0.6,1.1c0.1,0.4,0.2,0.9,0.2,1.5c0,1.4-0.4,2.4-1.1,3C113.3,49,112.2,49.3,110.9,49.3z"/>
	<path d="M139.6,42.4h-6.9v6.7h-1.2V34.8h1.2v6.5h6.9v-6.5h1.2v14.3h-1.2V42.4z"/>
	<path d="M162.5,49.3c-0.8,0-1.6-0.1-2.2-0.4c-0.7-0.3-1.2-0.7-1.7-1.3c-0.5-0.6-0.8-1.3-1-2.3c-0.2-0.9-0.4-2.1-0.4-3.4
		c0-1.3,0.1-2.5,0.4-3.4c0.2-0.9,0.6-1.7,1-2.3c0.5-0.6,1-1,1.7-1.3c0.7-0.3,1.4-0.4,2.2-0.4c0.8,0,1.6,0.1,2.2,0.4s1.2,0.7,1.7,1.3
		c0.5,0.6,0.8,1.4,1,2.3c0.2,0.9,0.4,2.1,0.4,3.4c0,1.3-0.1,2.5-0.4,3.4c-0.2,0.9-0.6,1.7-1,2.3c-0.5,0.6-1,1-1.7,1.3
		C164.1,49.2,163.3,49.3,162.5,49.3z M162.5,48.3c1.3,0,2.3-0.4,3-1.3c0.7-0.9,1-2.1,1-3.8v-2.6c0-1.7-0.3-2.9-1-3.8
		c-0.7-0.9-1.7-1.3-3-1.3c-1.3,0-2.3,0.4-3,1.3s-1,2.1-1,3.8v2.6c0,1.7,0.3,2.9,1,3.8C160.2,47.8,161.2,48.3,162.5,48.3z"/>
	<path d="M184.3,49.1V34.8h5.2c2.2,0,3.4,1.3,3.4,4s-1.1,4-3.4,4h-4v6.3H184.3z M185.5,41.7h4c0.7,0,1.3-0.2,1.6-0.6
		c0.3-0.4,0.5-1,0.5-1.7v-1.3c0-0.7-0.2-1.3-0.5-1.7c-0.3-0.4-0.9-0.6-1.6-0.6h-4V41.7z"/>
</g>
</svg>
